('C:\\Users\\danna\\Downloads\\Diego\\build\\danip\\PYZ-00.pyz',
 [('__future__',
   'C:\\Program '
   'Files\\WindowsApps\\PythonSoftwareFoundation.Python.3.11_3.11.2544.0_x64__qbz5n2kfra8p0\\Lib\\__future__.py',
   'PYMODULE'),
  ('_compat_pickle',
   'C:\\Program '
   'Files\\WindowsApps\\PythonSoftwareFoundation.Python.3.11_3.11.2544.0_x64__qbz5n2kfra8p0\\Lib\\_compat_pickle.py',
   'PYMODULE'),
  ('_compression',
   'C:\\Program '
   'Files\\WindowsApps\\PythonSoftwareFoundation.Python.3.11_3.11.2544.0_x64__qbz5n2kfra8p0\\Lib\\_compression.py',
   'PYMODULE'),
  ('_py_abc',
   'C:\\Program '
   'Files\\WindowsApps\\PythonSoftwareFoundation.Python.3.11_3.11.2544.0_x64__qbz5n2kfra8p0\\Lib\\_py_abc.py',
   'PYMODULE'),
  ('_pydecimal',
   'C:\\Program '
   'Files\\WindowsApps\\PythonSoftwareFoundation.Python.3.11_3.11.2544.0_x64__qbz5n2kfra8p0\\Lib\\_pydecimal.py',
   'PYMODULE'),
  ('_strptime',
   'C:\\Program '
   'Files\\WindowsApps\\PythonSoftwareFoundation.Python.3.11_3.11.2544.0_x64__qbz5n2kfra8p0\\Lib\\_strptime.py',
   'PYMODULE'),
  ('_threading_local',
   'C:\\Program '
   'Files\\WindowsApps\\PythonSoftwareFoundation.Python.3.11_3.11.2544.0_x64__qbz5n2kfra8p0\\Lib\\_threading_local.py',
   'PYMODULE'),
  ('argparse',
   'C:\\Program '
   'Files\\WindowsApps\\PythonSoftwareFoundation.Python.3.11_3.11.2544.0_x64__qbz5n2kfra8p0\\Lib\\argparse.py',
   'PYMODULE'),
  ('ast',
   'C:\\Program '
   'Files\\WindowsApps\\PythonSoftwareFoundation.Python.3.11_3.11.2544.0_x64__qbz5n2kfra8p0\\Lib\\ast.py',
   'PYMODULE'),
  ('base64',
   'C:\\Program '
   'Files\\WindowsApps\\PythonSoftwareFoundation.Python.3.11_3.11.2544.0_x64__qbz5n2kfra8p0\\Lib\\base64.py',
   'PYMODULE'),
  ('bisect',
   'C:\\Program '
   'Files\\WindowsApps\\PythonSoftwareFoundation.Python.3.11_3.11.2544.0_x64__qbz5n2kfra8p0\\Lib\\bisect.py',
   'PYMODULE'),
  ('bz2',
   'C:\\Program '
   'Files\\WindowsApps\\PythonSoftwareFoundation.Python.3.11_3.11.2544.0_x64__qbz5n2kfra8p0\\Lib\\bz2.py',
   'PYMODULE'),
  ('calendar',
   'C:\\Program '
   'Files\\WindowsApps\\PythonSoftwareFoundation.Python.3.11_3.11.2544.0_x64__qbz5n2kfra8p0\\Lib\\calendar.py',
   'PYMODULE'),
  ('certifi',
   'C:\\Users\\danna\\AppData\\Local\\Packages\\PythonSoftwareFoundation.Python.3.11_qbz5n2kfra8p0\\LocalCache\\local-packages\\Python311\\site-packages\\certifi\\__init__.py',
   'PYMODULE'),
  ('certifi.core',
   'C:\\Users\\danna\\AppData\\Local\\Packages\\PythonSoftwareFoundation.Python.3.11_qbz5n2kfra8p0\\LocalCache\\local-packages\\Python311\\site-packages\\certifi\\core.py',
   'PYMODULE'),
  ('charset_normalizer',
   'C:\\Users\\danna\\AppData\\Local\\Packages\\PythonSoftwareFoundation.Python.3.11_qbz5n2kfra8p0\\LocalCache\\local-packages\\Python311\\site-packages\\charset_normalizer\\__init__.py',
   'PYMODULE'),
  ('charset_normalizer.api',
   'C:\\Users\\danna\\AppData\\Local\\Packages\\PythonSoftwareFoundation.Python.3.11_qbz5n2kfra8p0\\LocalCache\\local-packages\\Python311\\site-packages\\charset_normalizer\\api.py',
   'PYMODULE'),
  ('charset_normalizer.cd',
   'C:\\Users\\danna\\AppData\\Local\\Packages\\PythonSoftwareFoundation.Python.3.11_qbz5n2kfra8p0\\LocalCache\\local-packages\\Python311\\site-packages\\charset_normalizer\\cd.py',
   'PYMODULE'),
  ('charset_normalizer.constant',
   'C:\\Users\\danna\\AppData\\Local\\Packages\\PythonSoftwareFoundation.Python.3.11_qbz5n2kfra8p0\\LocalCache\\local-packages\\Python311\\site-packages\\charset_normalizer\\constant.py',
   'PYMODULE'),
  ('charset_normalizer.legacy',
   'C:\\Users\\danna\\AppData\\Local\\Packages\\PythonSoftwareFoundation.Python.3.11_qbz5n2kfra8p0\\LocalCache\\local-packages\\Python311\\site-packages\\charset_normalizer\\legacy.py',
   'PYMODULE'),
  ('charset_normalizer.models',
   'C:\\Users\\danna\\AppData\\Local\\Packages\\PythonSoftwareFoundation.Python.3.11_qbz5n2kfra8p0\\LocalCache\\local-packages\\Python311\\site-packages\\charset_normalizer\\models.py',
   'PYMODULE'),
  ('charset_normalizer.utils',
   'C:\\Users\\danna\\AppData\\Local\\Packages\\PythonSoftwareFoundation.Python.3.11_qbz5n2kfra8p0\\LocalCache\\local-packages\\Python311\\site-packages\\charset_normalizer\\utils.py',
   'PYMODULE'),
  ('charset_normalizer.version',
   'C:\\Users\\danna\\AppData\\Local\\Packages\\PythonSoftwareFoundation.Python.3.11_qbz5n2kfra8p0\\LocalCache\\local-packages\\Python311\\site-packages\\charset_normalizer\\version.py',
   'PYMODULE'),
  ('contextlib',
   'C:\\Program '
   'Files\\WindowsApps\\PythonSoftwareFoundation.Python.3.11_3.11.2544.0_x64__qbz5n2kfra8p0\\Lib\\contextlib.py',
   'PYMODULE'),
  ('contextvars',
   'C:\\Program '
   'Files\\WindowsApps\\PythonSoftwareFoundation.Python.3.11_3.11.2544.0_x64__qbz5n2kfra8p0\\Lib\\contextvars.py',
   'PYMODULE'),
  ('copy',
   'C:\\Program '
   'Files\\WindowsApps\\PythonSoftwareFoundation.Python.3.11_3.11.2544.0_x64__qbz5n2kfra8p0\\Lib\\copy.py',
   'PYMODULE'),
  ('csv',
   'C:\\Program '
   'Files\\WindowsApps\\PythonSoftwareFoundation.Python.3.11_3.11.2544.0_x64__qbz5n2kfra8p0\\Lib\\csv.py',
   'PYMODULE'),
  ('dataclasses',
   'C:\\Program '
   'Files\\WindowsApps\\PythonSoftwareFoundation.Python.3.11_3.11.2544.0_x64__qbz5n2kfra8p0\\Lib\\dataclasses.py',
   'PYMODULE'),
  ('datetime',
   'C:\\Program '
   'Files\\WindowsApps\\PythonSoftwareFoundation.Python.3.11_3.11.2544.0_x64__qbz5n2kfra8p0\\Lib\\datetime.py',
   'PYMODULE'),
  ('decimal',
   'C:\\Program '
   'Files\\WindowsApps\\PythonSoftwareFoundation.Python.3.11_3.11.2544.0_x64__qbz5n2kfra8p0\\Lib\\decimal.py',
   'PYMODULE'),
  ('dis',
   'C:\\Program '
   'Files\\WindowsApps\\PythonSoftwareFoundation.Python.3.11_3.11.2544.0_x64__qbz5n2kfra8p0\\Lib\\dis.py',
   'PYMODULE'),
  ('email',
   'C:\\Program '
   'Files\\WindowsApps\\PythonSoftwareFoundation.Python.3.11_3.11.2544.0_x64__qbz5n2kfra8p0\\Lib\\email\\__init__.py',
   'PYMODULE'),
  ('email._encoded_words',
   'C:\\Program '
   'Files\\WindowsApps\\PythonSoftwareFoundation.Python.3.11_3.11.2544.0_x64__qbz5n2kfra8p0\\Lib\\email\\_encoded_words.py',
   'PYMODULE'),
  ('email._header_value_parser',
   'C:\\Program '
   'Files\\WindowsApps\\PythonSoftwareFoundation.Python.3.11_3.11.2544.0_x64__qbz5n2kfra8p0\\Lib\\email\\_header_value_parser.py',
   'PYMODULE'),
  ('email._parseaddr',
   'C:\\Program '
   'Files\\WindowsApps\\PythonSoftwareFoundation.Python.3.11_3.11.2544.0_x64__qbz5n2kfra8p0\\Lib\\email\\_parseaddr.py',
   'PYMODULE'),
  ('email._policybase',
   'C:\\Program '
   'Files\\WindowsApps\\PythonSoftwareFoundation.Python.3.11_3.11.2544.0_x64__qbz5n2kfra8p0\\Lib\\email\\_policybase.py',
   'PYMODULE'),
  ('email.base64mime',
   'C:\\Program '
   'Files\\WindowsApps\\PythonSoftwareFoundation.Python.3.11_3.11.2544.0_x64__qbz5n2kfra8p0\\Lib\\email\\base64mime.py',
   'PYMODULE'),
  ('email.charset',
   'C:\\Program '
   'Files\\WindowsApps\\PythonSoftwareFoundation.Python.3.11_3.11.2544.0_x64__qbz5n2kfra8p0\\Lib\\email\\charset.py',
   'PYMODULE'),
  ('email.contentmanager',
   'C:\\Program '
   'Files\\WindowsApps\\PythonSoftwareFoundation.Python.3.11_3.11.2544.0_x64__qbz5n2kfra8p0\\Lib\\email\\contentmanager.py',
   'PYMODULE'),
  ('email.encoders',
   'C:\\Program '
   'Files\\WindowsApps\\PythonSoftwareFoundation.Python.3.11_3.11.2544.0_x64__qbz5n2kfra8p0\\Lib\\email\\encoders.py',
   'PYMODULE'),
  ('email.errors',
   'C:\\Program '
   'Files\\WindowsApps\\PythonSoftwareFoundation.Python.3.11_3.11.2544.0_x64__qbz5n2kfra8p0\\Lib\\email\\errors.py',
   'PYMODULE'),
  ('email.feedparser',
   'C:\\Program '
   'Files\\WindowsApps\\PythonSoftwareFoundation.Python.3.11_3.11.2544.0_x64__qbz5n2kfra8p0\\Lib\\email\\feedparser.py',
   'PYMODULE'),
  ('email.generator',
   'C:\\Program '
   'Files\\WindowsApps\\PythonSoftwareFoundation.Python.3.11_3.11.2544.0_x64__qbz5n2kfra8p0\\Lib\\email\\generator.py',
   'PYMODULE'),
  ('email.header',
   'C:\\Program '
   'Files\\WindowsApps\\PythonSoftwareFoundation.Python.3.11_3.11.2544.0_x64__qbz5n2kfra8p0\\Lib\\email\\header.py',
   'PYMODULE'),
  ('email.headerregistry',
   'C:\\Program '
   'Files\\WindowsApps\\PythonSoftwareFoundation.Python.3.11_3.11.2544.0_x64__qbz5n2kfra8p0\\Lib\\email\\headerregistry.py',
   'PYMODULE'),
  ('email.iterators',
   'C:\\Program '
   'Files\\WindowsApps\\PythonSoftwareFoundation.Python.3.11_3.11.2544.0_x64__qbz5n2kfra8p0\\Lib\\email\\iterators.py',
   'PYMODULE'),
  ('email.message',
   'C:\\Program '
   'Files\\WindowsApps\\PythonSoftwareFoundation.Python.3.11_3.11.2544.0_x64__qbz5n2kfra8p0\\Lib\\email\\message.py',
   'PYMODULE'),
  ('email.parser',
   'C:\\Program '
   'Files\\WindowsApps\\PythonSoftwareFoundation.Python.3.11_3.11.2544.0_x64__qbz5n2kfra8p0\\Lib\\email\\parser.py',
   'PYMODULE'),
  ('email.policy',
   'C:\\Program '
   'Files\\WindowsApps\\PythonSoftwareFoundation.Python.3.11_3.11.2544.0_x64__qbz5n2kfra8p0\\Lib\\email\\policy.py',
   'PYMODULE'),
  ('email.quoprimime',
   'C:\\Program '
   'Files\\WindowsApps\\PythonSoftwareFoundation.Python.3.11_3.11.2544.0_x64__qbz5n2kfra8p0\\Lib\\email\\quoprimime.py',
   'PYMODULE'),
  ('email.utils',
   'C:\\Program '
   'Files\\WindowsApps\\PythonSoftwareFoundation.Python.3.11_3.11.2544.0_x64__qbz5n2kfra8p0\\Lib\\email\\utils.py',
   'PYMODULE'),
  ('fnmatch',
   'C:\\Program '
   'Files\\WindowsApps\\PythonSoftwareFoundation.Python.3.11_3.11.2544.0_x64__qbz5n2kfra8p0\\Lib\\fnmatch.py',
   'PYMODULE'),
  ('fractions',
   'C:\\Program '
   'Files\\WindowsApps\\PythonSoftwareFoundation.Python.3.11_3.11.2544.0_x64__qbz5n2kfra8p0\\Lib\\fractions.py',
   'PYMODULE'),
  ('ftplib',
   'C:\\Program '
   'Files\\WindowsApps\\PythonSoftwareFoundation.Python.3.11_3.11.2544.0_x64__qbz5n2kfra8p0\\Lib\\ftplib.py',
   'PYMODULE'),
  ('getopt',
   'C:\\Program '
   'Files\\WindowsApps\\PythonSoftwareFoundation.Python.3.11_3.11.2544.0_x64__qbz5n2kfra8p0\\Lib\\getopt.py',
   'PYMODULE'),
  ('getpass',
   'C:\\Program '
   'Files\\WindowsApps\\PythonSoftwareFoundation.Python.3.11_3.11.2544.0_x64__qbz5n2kfra8p0\\Lib\\getpass.py',
   'PYMODULE'),
  ('gettext',
   'C:\\Program '
   'Files\\WindowsApps\\PythonSoftwareFoundation.Python.3.11_3.11.2544.0_x64__qbz5n2kfra8p0\\Lib\\gettext.py',
   'PYMODULE'),
  ('gzip',
   'C:\\Program '
   'Files\\WindowsApps\\PythonSoftwareFoundation.Python.3.11_3.11.2544.0_x64__qbz5n2kfra8p0\\Lib\\gzip.py',
   'PYMODULE'),
  ('hashlib',
   'C:\\Program '
   'Files\\WindowsApps\\PythonSoftwareFoundation.Python.3.11_3.11.2544.0_x64__qbz5n2kfra8p0\\Lib\\hashlib.py',
   'PYMODULE'),
  ('hmac',
   'C:\\Program '
   'Files\\WindowsApps\\PythonSoftwareFoundation.Python.3.11_3.11.2544.0_x64__qbz5n2kfra8p0\\Lib\\hmac.py',
   'PYMODULE'),
  ('http',
   'C:\\Program '
   'Files\\WindowsApps\\PythonSoftwareFoundation.Python.3.11_3.11.2544.0_x64__qbz5n2kfra8p0\\Lib\\http\\__init__.py',
   'PYMODULE'),
  ('http.client',
   'C:\\Program '
   'Files\\WindowsApps\\PythonSoftwareFoundation.Python.3.11_3.11.2544.0_x64__qbz5n2kfra8p0\\Lib\\http\\client.py',
   'PYMODULE'),
  ('http.cookiejar',
   'C:\\Program '
   'Files\\WindowsApps\\PythonSoftwareFoundation.Python.3.11_3.11.2544.0_x64__qbz5n2kfra8p0\\Lib\\http\\cookiejar.py',
   'PYMODULE'),
  ('http.cookies',
   'C:\\Program '
   'Files\\WindowsApps\\PythonSoftwareFoundation.Python.3.11_3.11.2544.0_x64__qbz5n2kfra8p0\\Lib\\http\\cookies.py',
   'PYMODULE'),
  ('idna',
   'C:\\Users\\danna\\AppData\\Local\\Packages\\PythonSoftwareFoundation.Python.3.11_qbz5n2kfra8p0\\LocalCache\\local-packages\\Python311\\site-packages\\idna\\__init__.py',
   'PYMODULE'),
  ('idna.core',
   'C:\\Users\\danna\\AppData\\Local\\Packages\\PythonSoftwareFoundation.Python.3.11_qbz5n2kfra8p0\\LocalCache\\local-packages\\Python311\\site-packages\\idna\\core.py',
   'PYMODULE'),
  ('idna.idnadata',
   'C:\\Users\\danna\\AppData\\Local\\Packages\\PythonSoftwareFoundation.Python.3.11_qbz5n2kfra8p0\\LocalCache\\local-packages\\Python311\\site-packages\\idna\\idnadata.py',
   'PYMODULE'),
  ('idna.intranges',
   'C:\\Users\\danna\\AppData\\Local\\Packages\\PythonSoftwareFoundation.Python.3.11_qbz5n2kfra8p0\\LocalCache\\local-packages\\Python311\\site-packages\\idna\\intranges.py',
   'PYMODULE'),
  ('idna.package_data',
   'C:\\Users\\danna\\AppData\\Local\\Packages\\PythonSoftwareFoundation.Python.3.11_qbz5n2kfra8p0\\LocalCache\\local-packages\\Python311\\site-packages\\idna\\package_data.py',
   'PYMODULE'),
  ('idna.uts46data',
   'C:\\Users\\danna\\AppData\\Local\\Packages\\PythonSoftwareFoundation.Python.3.11_qbz5n2kfra8p0\\LocalCache\\local-packages\\Python311\\site-packages\\idna\\uts46data.py',
   'PYMODULE'),
  ('importlib',
   'C:\\Program '
   'Files\\WindowsApps\\PythonSoftwareFoundation.Python.3.11_3.11.2544.0_x64__qbz5n2kfra8p0\\Lib\\importlib\\__init__.py',
   'PYMODULE'),
  ('importlib._abc',
   'C:\\Program '
   'Files\\WindowsApps\\PythonSoftwareFoundation.Python.3.11_3.11.2544.0_x64__qbz5n2kfra8p0\\Lib\\importlib\\_abc.py',
   'PYMODULE'),
  ('importlib._bootstrap',
   'C:\\Program '
   'Files\\WindowsApps\\PythonSoftwareFoundation.Python.3.11_3.11.2544.0_x64__qbz5n2kfra8p0\\Lib\\importlib\\_bootstrap.py',
   'PYMODULE'),
  ('importlib._bootstrap_external',
   'C:\\Program '
   'Files\\WindowsApps\\PythonSoftwareFoundation.Python.3.11_3.11.2544.0_x64__qbz5n2kfra8p0\\Lib\\importlib\\_bootstrap_external.py',
   'PYMODULE'),
  ('importlib.abc',
   'C:\\Program '
   'Files\\WindowsApps\\PythonSoftwareFoundation.Python.3.11_3.11.2544.0_x64__qbz5n2kfra8p0\\Lib\\importlib\\abc.py',
   'PYMODULE'),
  ('importlib.machinery',
   'C:\\Program '
   'Files\\WindowsApps\\PythonSoftwareFoundation.Python.3.11_3.11.2544.0_x64__qbz5n2kfra8p0\\Lib\\importlib\\machinery.py',
   'PYMODULE'),
  ('importlib.metadata',
   'C:\\Program '
   'Files\\WindowsApps\\PythonSoftwareFoundation.Python.3.11_3.11.2544.0_x64__qbz5n2kfra8p0\\Lib\\importlib\\metadata\\__init__.py',
   'PYMODULE'),
  ('importlib.metadata._adapters',
   'C:\\Program '
   'Files\\WindowsApps\\PythonSoftwareFoundation.Python.3.11_3.11.2544.0_x64__qbz5n2kfra8p0\\Lib\\importlib\\metadata\\_adapters.py',
   'PYMODULE'),
  ('importlib.metadata._collections',
   'C:\\Program '
   'Files\\WindowsApps\\PythonSoftwareFoundation.Python.3.11_3.11.2544.0_x64__qbz5n2kfra8p0\\Lib\\importlib\\metadata\\_collections.py',
   'PYMODULE'),
  ('importlib.metadata._functools',
   'C:\\Program '
   'Files\\WindowsApps\\PythonSoftwareFoundation.Python.3.11_3.11.2544.0_x64__qbz5n2kfra8p0\\Lib\\importlib\\metadata\\_functools.py',
   'PYMODULE'),
  ('importlib.metadata._itertools',
   'C:\\Program '
   'Files\\WindowsApps\\PythonSoftwareFoundation.Python.3.11_3.11.2544.0_x64__qbz5n2kfra8p0\\Lib\\importlib\\metadata\\_itertools.py',
   'PYMODULE'),
  ('importlib.metadata._meta',
   'C:\\Program '
   'Files\\WindowsApps\\PythonSoftwareFoundation.Python.3.11_3.11.2544.0_x64__qbz5n2kfra8p0\\Lib\\importlib\\metadata\\_meta.py',
   'PYMODULE'),
  ('importlib.metadata._text',
   'C:\\Program '
   'Files\\WindowsApps\\PythonSoftwareFoundation.Python.3.11_3.11.2544.0_x64__qbz5n2kfra8p0\\Lib\\importlib\\metadata\\_text.py',
   'PYMODULE'),
  ('importlib.readers',
   'C:\\Program '
   'Files\\WindowsApps\\PythonSoftwareFoundation.Python.3.11_3.11.2544.0_x64__qbz5n2kfra8p0\\Lib\\importlib\\readers.py',
   'PYMODULE'),
  ('importlib.resources',
   'C:\\Program '
   'Files\\WindowsApps\\PythonSoftwareFoundation.Python.3.11_3.11.2544.0_x64__qbz5n2kfra8p0\\Lib\\importlib\\resources\\__init__.py',
   'PYMODULE'),
  ('importlib.resources._adapters',
   'C:\\Program '
   'Files\\WindowsApps\\PythonSoftwareFoundation.Python.3.11_3.11.2544.0_x64__qbz5n2kfra8p0\\Lib\\importlib\\resources\\_adapters.py',
   'PYMODULE'),
  ('importlib.resources._common',
   'C:\\Program '
   'Files\\WindowsApps\\PythonSoftwareFoundation.Python.3.11_3.11.2544.0_x64__qbz5n2kfra8p0\\Lib\\importlib\\resources\\_common.py',
   'PYMODULE'),
  ('importlib.resources._itertools',
   'C:\\Program '
   'Files\\WindowsApps\\PythonSoftwareFoundation.Python.3.11_3.11.2544.0_x64__qbz5n2kfra8p0\\Lib\\importlib\\resources\\_itertools.py',
   'PYMODULE'),
  ('importlib.resources._legacy',
   'C:\\Program '
   'Files\\WindowsApps\\PythonSoftwareFoundation.Python.3.11_3.11.2544.0_x64__qbz5n2kfra8p0\\Lib\\importlib\\resources\\_legacy.py',
   'PYMODULE'),
  ('importlib.resources.abc',
   'C:\\Program '
   'Files\\WindowsApps\\PythonSoftwareFoundation.Python.3.11_3.11.2544.0_x64__qbz5n2kfra8p0\\Lib\\importlib\\resources\\abc.py',
   'PYMODULE'),
  ('importlib.resources.readers',
   'C:\\Program '
   'Files\\WindowsApps\\PythonSoftwareFoundation.Python.3.11_3.11.2544.0_x64__qbz5n2kfra8p0\\Lib\\importlib\\resources\\readers.py',
   'PYMODULE'),
  ('importlib.util',
   'C:\\Program '
   'Files\\WindowsApps\\PythonSoftwareFoundation.Python.3.11_3.11.2544.0_x64__qbz5n2kfra8p0\\Lib\\importlib\\util.py',
   'PYMODULE'),
  ('inspect',
   'C:\\Program '
   'Files\\WindowsApps\\PythonSoftwareFoundation.Python.3.11_3.11.2544.0_x64__qbz5n2kfra8p0\\Lib\\inspect.py',
   'PYMODULE'),
  ('ipaddress',
   'C:\\Program '
   'Files\\WindowsApps\\PythonSoftwareFoundation.Python.3.11_3.11.2544.0_x64__qbz5n2kfra8p0\\Lib\\ipaddress.py',
   'PYMODULE'),
  ('json',
   'C:\\Program '
   'Files\\WindowsApps\\PythonSoftwareFoundation.Python.3.11_3.11.2544.0_x64__qbz5n2kfra8p0\\Lib\\json\\__init__.py',
   'PYMODULE'),
  ('json.decoder',
   'C:\\Program '
   'Files\\WindowsApps\\PythonSoftwareFoundation.Python.3.11_3.11.2544.0_x64__qbz5n2kfra8p0\\Lib\\json\\decoder.py',
   'PYMODULE'),
  ('json.encoder',
   'C:\\Program '
   'Files\\WindowsApps\\PythonSoftwareFoundation.Python.3.11_3.11.2544.0_x64__qbz5n2kfra8p0\\Lib\\json\\encoder.py',
   'PYMODULE'),
  ('json.scanner',
   'C:\\Program '
   'Files\\WindowsApps\\PythonSoftwareFoundation.Python.3.11_3.11.2544.0_x64__qbz5n2kfra8p0\\Lib\\json\\scanner.py',
   'PYMODULE'),
  ('logging',
   'C:\\Program '
   'Files\\WindowsApps\\PythonSoftwareFoundation.Python.3.11_3.11.2544.0_x64__qbz5n2kfra8p0\\Lib\\logging\\__init__.py',
   'PYMODULE'),
  ('lzma',
   'C:\\Program '
   'Files\\WindowsApps\\PythonSoftwareFoundation.Python.3.11_3.11.2544.0_x64__qbz5n2kfra8p0\\Lib\\lzma.py',
   'PYMODULE'),
  ('mimetypes',
   'C:\\Program '
   'Files\\WindowsApps\\PythonSoftwareFoundation.Python.3.11_3.11.2544.0_x64__qbz5n2kfra8p0\\Lib\\mimetypes.py',
   'PYMODULE'),
  ('netrc',
   'C:\\Program '
   'Files\\WindowsApps\\PythonSoftwareFoundation.Python.3.11_3.11.2544.0_x64__qbz5n2kfra8p0\\Lib\\netrc.py',
   'PYMODULE'),
  ('nturl2path',
   'C:\\Program '
   'Files\\WindowsApps\\PythonSoftwareFoundation.Python.3.11_3.11.2544.0_x64__qbz5n2kfra8p0\\Lib\\nturl2path.py',
   'PYMODULE'),
  ('numbers',
   'C:\\Program '
   'Files\\WindowsApps\\PythonSoftwareFoundation.Python.3.11_3.11.2544.0_x64__qbz5n2kfra8p0\\Lib\\numbers.py',
   'PYMODULE'),
  ('opcode',
   'C:\\Program '
   'Files\\WindowsApps\\PythonSoftwareFoundation.Python.3.11_3.11.2544.0_x64__qbz5n2kfra8p0\\Lib\\opcode.py',
   'PYMODULE'),
  ('pathlib',
   'C:\\Program '
   'Files\\WindowsApps\\PythonSoftwareFoundation.Python.3.11_3.11.2544.0_x64__qbz5n2kfra8p0\\Lib\\pathlib.py',
   'PYMODULE'),
  ('pickle',
   'C:\\Program '
   'Files\\WindowsApps\\PythonSoftwareFoundation.Python.3.11_3.11.2544.0_x64__qbz5n2kfra8p0\\Lib\\pickle.py',
   'PYMODULE'),
  ('pprint',
   'C:\\Program '
   'Files\\WindowsApps\\PythonSoftwareFoundation.Python.3.11_3.11.2544.0_x64__qbz5n2kfra8p0\\Lib\\pprint.py',
   'PYMODULE'),
  ('py_compile',
   'C:\\Program '
   'Files\\WindowsApps\\PythonSoftwareFoundation.Python.3.11_3.11.2544.0_x64__qbz5n2kfra8p0\\Lib\\py_compile.py',
   'PYMODULE'),
  ('queue',
   'C:\\Program '
   'Files\\WindowsApps\\PythonSoftwareFoundation.Python.3.11_3.11.2544.0_x64__qbz5n2kfra8p0\\Lib\\queue.py',
   'PYMODULE'),
  ('quopri',
   'C:\\Program '
   'Files\\WindowsApps\\PythonSoftwareFoundation.Python.3.11_3.11.2544.0_x64__qbz5n2kfra8p0\\Lib\\quopri.py',
   'PYMODULE'),
  ('random',
   'C:\\Program '
   'Files\\WindowsApps\\PythonSoftwareFoundation.Python.3.11_3.11.2544.0_x64__qbz5n2kfra8p0\\Lib\\random.py',
   'PYMODULE'),
  ('requests',
   'C:\\Users\\danna\\AppData\\Local\\Packages\\PythonSoftwareFoundation.Python.3.11_qbz5n2kfra8p0\\LocalCache\\local-packages\\Python311\\site-packages\\requests\\__init__.py',
   'PYMODULE'),
  ('requests.__version__',
   'C:\\Users\\danna\\AppData\\Local\\Packages\\PythonSoftwareFoundation.Python.3.11_qbz5n2kfra8p0\\LocalCache\\local-packages\\Python311\\site-packages\\requests\\__version__.py',
   'PYMODULE'),
  ('requests._internal_utils',
   'C:\\Users\\danna\\AppData\\Local\\Packages\\PythonSoftwareFoundation.Python.3.11_qbz5n2kfra8p0\\LocalCache\\local-packages\\Python311\\site-packages\\requests\\_internal_utils.py',
   'PYMODULE'),
  ('requests.adapters',
   'C:\\Users\\danna\\AppData\\Local\\Packages\\PythonSoftwareFoundation.Python.3.11_qbz5n2kfra8p0\\LocalCache\\local-packages\\Python311\\site-packages\\requests\\adapters.py',
   'PYMODULE'),
  ('requests.api',
   'C:\\Users\\danna\\AppData\\Local\\Packages\\PythonSoftwareFoundation.Python.3.11_qbz5n2kfra8p0\\LocalCache\\local-packages\\Python311\\site-packages\\requests\\api.py',
   'PYMODULE'),
  ('requests.auth',
   'C:\\Users\\danna\\AppData\\Local\\Packages\\PythonSoftwareFoundation.Python.3.11_qbz5n2kfra8p0\\LocalCache\\local-packages\\Python311\\site-packages\\requests\\auth.py',
   'PYMODULE'),
  ('requests.certs',
   'C:\\Users\\danna\\AppData\\Local\\Packages\\PythonSoftwareFoundation.Python.3.11_qbz5n2kfra8p0\\LocalCache\\local-packages\\Python311\\site-packages\\requests\\certs.py',
   'PYMODULE'),
  ('requests.compat',
   'C:\\Users\\danna\\AppData\\Local\\Packages\\PythonSoftwareFoundation.Python.3.11_qbz5n2kfra8p0\\LocalCache\\local-packages\\Python311\\site-packages\\requests\\compat.py',
   'PYMODULE'),
  ('requests.cookies',
   'C:\\Users\\danna\\AppData\\Local\\Packages\\PythonSoftwareFoundation.Python.3.11_qbz5n2kfra8p0\\LocalCache\\local-packages\\Python311\\site-packages\\requests\\cookies.py',
   'PYMODULE'),
  ('requests.exceptions',
   'C:\\Users\\danna\\AppData\\Local\\Packages\\PythonSoftwareFoundation.Python.3.11_qbz5n2kfra8p0\\LocalCache\\local-packages\\Python311\\site-packages\\requests\\exceptions.py',
   'PYMODULE'),
  ('requests.hooks',
   'C:\\Users\\danna\\AppData\\Local\\Packages\\PythonSoftwareFoundation.Python.3.11_qbz5n2kfra8p0\\LocalCache\\local-packages\\Python311\\site-packages\\requests\\hooks.py',
   'PYMODULE'),
  ('requests.models',
   'C:\\Users\\danna\\AppData\\Local\\Packages\\PythonSoftwareFoundation.Python.3.11_qbz5n2kfra8p0\\LocalCache\\local-packages\\Python311\\site-packages\\requests\\models.py',
   'PYMODULE'),
  ('requests.packages',
   'C:\\Users\\danna\\AppData\\Local\\Packages\\PythonSoftwareFoundation.Python.3.11_qbz5n2kfra8p0\\LocalCache\\local-packages\\Python311\\site-packages\\requests\\packages.py',
   'PYMODULE'),
  ('requests.sessions',
   'C:\\Users\\danna\\AppData\\Local\\Packages\\PythonSoftwareFoundation.Python.3.11_qbz5n2kfra8p0\\LocalCache\\local-packages\\Python311\\site-packages\\requests\\sessions.py',
   'PYMODULE'),
  ('requests.status_codes',
   'C:\\Users\\danna\\AppData\\Local\\Packages\\PythonSoftwareFoundation.Python.3.11_qbz5n2kfra8p0\\LocalCache\\local-packages\\Python311\\site-packages\\requests\\status_codes.py',
   'PYMODULE'),
  ('requests.structures',
   'C:\\Users\\danna\\AppData\\Local\\Packages\\PythonSoftwareFoundation.Python.3.11_qbz5n2kfra8p0\\LocalCache\\local-packages\\Python311\\site-packages\\requests\\structures.py',
   'PYMODULE'),
  ('requests.utils',
   'C:\\Users\\danna\\AppData\\Local\\Packages\\PythonSoftwareFoundation.Python.3.11_qbz5n2kfra8p0\\LocalCache\\local-packages\\Python311\\site-packages\\requests\\utils.py',
   'PYMODULE'),
  ('selectors',
   'C:\\Program '
   'Files\\WindowsApps\\PythonSoftwareFoundation.Python.3.11_3.11.2544.0_x64__qbz5n2kfra8p0\\Lib\\selectors.py',
   'PYMODULE'),
  ('shlex',
   'C:\\Program '
   'Files\\WindowsApps\\PythonSoftwareFoundation.Python.3.11_3.11.2544.0_x64__qbz5n2kfra8p0\\Lib\\shlex.py',
   'PYMODULE'),
  ('shutil',
   'C:\\Program '
   'Files\\WindowsApps\\PythonSoftwareFoundation.Python.3.11_3.11.2544.0_x64__qbz5n2kfra8p0\\Lib\\shutil.py',
   'PYMODULE'),
  ('signal',
   'C:\\Program '
   'Files\\WindowsApps\\PythonSoftwareFoundation.Python.3.11_3.11.2544.0_x64__qbz5n2kfra8p0\\Lib\\signal.py',
   'PYMODULE'),
  ('socket',
   'C:\\Program '
   'Files\\WindowsApps\\PythonSoftwareFoundation.Python.3.11_3.11.2544.0_x64__qbz5n2kfra8p0\\Lib\\socket.py',
   'PYMODULE'),
  ('ssl',
   'C:\\Program '
   'Files\\WindowsApps\\PythonSoftwareFoundation.Python.3.11_3.11.2544.0_x64__qbz5n2kfra8p0\\Lib\\ssl.py',
   'PYMODULE'),
  ('statistics',
   'C:\\Program '
   'Files\\WindowsApps\\PythonSoftwareFoundation.Python.3.11_3.11.2544.0_x64__qbz5n2kfra8p0\\Lib\\statistics.py',
   'PYMODULE'),
  ('string',
   'C:\\Program '
   'Files\\WindowsApps\\PythonSoftwareFoundation.Python.3.11_3.11.2544.0_x64__qbz5n2kfra8p0\\Lib\\string.py',
   'PYMODULE'),
  ('stringprep',
   'C:\\Program '
   'Files\\WindowsApps\\PythonSoftwareFoundation.Python.3.11_3.11.2544.0_x64__qbz5n2kfra8p0\\Lib\\stringprep.py',
   'PYMODULE'),
  ('subprocess',
   'C:\\Program '
   'Files\\WindowsApps\\PythonSoftwareFoundation.Python.3.11_3.11.2544.0_x64__qbz5n2kfra8p0\\Lib\\subprocess.py',
   'PYMODULE'),
  ('tarfile',
   'C:\\Program '
   'Files\\WindowsApps\\PythonSoftwareFoundation.Python.3.11_3.11.2544.0_x64__qbz5n2kfra8p0\\Lib\\tarfile.py',
   'PYMODULE'),
  ('tempfile',
   'C:\\Program '
   'Files\\WindowsApps\\PythonSoftwareFoundation.Python.3.11_3.11.2544.0_x64__qbz5n2kfra8p0\\Lib\\tempfile.py',
   'PYMODULE'),
  ('textwrap',
   'C:\\Program '
   'Files\\WindowsApps\\PythonSoftwareFoundation.Python.3.11_3.11.2544.0_x64__qbz5n2kfra8p0\\Lib\\textwrap.py',
   'PYMODULE'),
  ('threading',
   'C:\\Program '
   'Files\\WindowsApps\\PythonSoftwareFoundation.Python.3.11_3.11.2544.0_x64__qbz5n2kfra8p0\\Lib\\threading.py',
   'PYMODULE'),
  ('token',
   'C:\\Program '
   'Files\\WindowsApps\\PythonSoftwareFoundation.Python.3.11_3.11.2544.0_x64__qbz5n2kfra8p0\\Lib\\token.py',
   'PYMODULE'),
  ('tokenize',
   'C:\\Program '
   'Files\\WindowsApps\\PythonSoftwareFoundation.Python.3.11_3.11.2544.0_x64__qbz5n2kfra8p0\\Lib\\tokenize.py',
   'PYMODULE'),
  ('tracemalloc',
   'C:\\Program '
   'Files\\WindowsApps\\PythonSoftwareFoundation.Python.3.11_3.11.2544.0_x64__qbz5n2kfra8p0\\Lib\\tracemalloc.py',
   'PYMODULE'),
  ('typing',
   'C:\\Program '
   'Files\\WindowsApps\\PythonSoftwareFoundation.Python.3.11_3.11.2544.0_x64__qbz5n2kfra8p0\\Lib\\typing.py',
   'PYMODULE'),
  ('urllib',
   'C:\\Program '
   'Files\\WindowsApps\\PythonSoftwareFoundation.Python.3.11_3.11.2544.0_x64__qbz5n2kfra8p0\\Lib\\urllib\\__init__.py',
   'PYMODULE'),
  ('urllib.error',
   'C:\\Program '
   'Files\\WindowsApps\\PythonSoftwareFoundation.Python.3.11_3.11.2544.0_x64__qbz5n2kfra8p0\\Lib\\urllib\\error.py',
   'PYMODULE'),
  ('urllib.parse',
   'C:\\Program '
   'Files\\WindowsApps\\PythonSoftwareFoundation.Python.3.11_3.11.2544.0_x64__qbz5n2kfra8p0\\Lib\\urllib\\parse.py',
   'PYMODULE'),
  ('urllib.request',
   'C:\\Program '
   'Files\\WindowsApps\\PythonSoftwareFoundation.Python.3.11_3.11.2544.0_x64__qbz5n2kfra8p0\\Lib\\urllib\\request.py',
   'PYMODULE'),
  ('urllib.response',
   'C:\\Program '
   'Files\\WindowsApps\\PythonSoftwareFoundation.Python.3.11_3.11.2544.0_x64__qbz5n2kfra8p0\\Lib\\urllib\\response.py',
   'PYMODULE'),
  ('urllib3',
   'C:\\Users\\danna\\AppData\\Local\\Packages\\PythonSoftwareFoundation.Python.3.11_qbz5n2kfra8p0\\LocalCache\\local-packages\\Python311\\site-packages\\urllib3\\__init__.py',
   'PYMODULE'),
  ('urllib3._base_connection',
   'C:\\Users\\danna\\AppData\\Local\\Packages\\PythonSoftwareFoundation.Python.3.11_qbz5n2kfra8p0\\LocalCache\\local-packages\\Python311\\site-packages\\urllib3\\_base_connection.py',
   'PYMODULE'),
  ('urllib3._collections',
   'C:\\Users\\danna\\AppData\\Local\\Packages\\PythonSoftwareFoundation.Python.3.11_qbz5n2kfra8p0\\LocalCache\\local-packages\\Python311\\site-packages\\urllib3\\_collections.py',
   'PYMODULE'),
  ('urllib3._request_methods',
   'C:\\Users\\danna\\AppData\\Local\\Packages\\PythonSoftwareFoundation.Python.3.11_qbz5n2kfra8p0\\LocalCache\\local-packages\\Python311\\site-packages\\urllib3\\_request_methods.py',
   'PYMODULE'),
  ('urllib3._version',
   'C:\\Users\\danna\\AppData\\Local\\Packages\\PythonSoftwareFoundation.Python.3.11_qbz5n2kfra8p0\\LocalCache\\local-packages\\Python311\\site-packages\\urllib3\\_version.py',
   'PYMODULE'),
  ('urllib3.connection',
   'C:\\Users\\danna\\AppData\\Local\\Packages\\PythonSoftwareFoundation.Python.3.11_qbz5n2kfra8p0\\LocalCache\\local-packages\\Python311\\site-packages\\urllib3\\connection.py',
   'PYMODULE'),
  ('urllib3.connectionpool',
   'C:\\Users\\danna\\AppData\\Local\\Packages\\PythonSoftwareFoundation.Python.3.11_qbz5n2kfra8p0\\LocalCache\\local-packages\\Python311\\site-packages\\urllib3\\connectionpool.py',
   'PYMODULE'),
  ('urllib3.contrib',
   'C:\\Users\\danna\\AppData\\Local\\Packages\\PythonSoftwareFoundation.Python.3.11_qbz5n2kfra8p0\\LocalCache\\local-packages\\Python311\\site-packages\\urllib3\\contrib\\__init__.py',
   'PYMODULE'),
  ('urllib3.contrib.emscripten',
   'C:\\Users\\danna\\AppData\\Local\\Packages\\PythonSoftwareFoundation.Python.3.11_qbz5n2kfra8p0\\LocalCache\\local-packages\\Python311\\site-packages\\urllib3\\contrib\\emscripten\\__init__.py',
   'PYMODULE'),
  ('urllib3.contrib.emscripten.connection',
   'C:\\Users\\danna\\AppData\\Local\\Packages\\PythonSoftwareFoundation.Python.3.11_qbz5n2kfra8p0\\LocalCache\\local-packages\\Python311\\site-packages\\urllib3\\contrib\\emscripten\\connection.py',
   'PYMODULE'),
  ('urllib3.contrib.emscripten.fetch',
   'C:\\Users\\danna\\AppData\\Local\\Packages\\PythonSoftwareFoundation.Python.3.11_qbz5n2kfra8p0\\LocalCache\\local-packages\\Python311\\site-packages\\urllib3\\contrib\\emscripten\\fetch.py',
   'PYMODULE'),
  ('urllib3.contrib.emscripten.request',
   'C:\\Users\\danna\\AppData\\Local\\Packages\\PythonSoftwareFoundation.Python.3.11_qbz5n2kfra8p0\\LocalCache\\local-packages\\Python311\\site-packages\\urllib3\\contrib\\emscripten\\request.py',
   'PYMODULE'),
  ('urllib3.contrib.emscripten.response',
   'C:\\Users\\danna\\AppData\\Local\\Packages\\PythonSoftwareFoundation.Python.3.11_qbz5n2kfra8p0\\LocalCache\\local-packages\\Python311\\site-packages\\urllib3\\contrib\\emscripten\\response.py',
   'PYMODULE'),
  ('urllib3.contrib.pyopenssl',
   'C:\\Users\\danna\\AppData\\Local\\Packages\\PythonSoftwareFoundation.Python.3.11_qbz5n2kfra8p0\\LocalCache\\local-packages\\Python311\\site-packages\\urllib3\\contrib\\pyopenssl.py',
   'PYMODULE'),
  ('urllib3.contrib.socks',
   'C:\\Users\\danna\\AppData\\Local\\Packages\\PythonSoftwareFoundation.Python.3.11_qbz5n2kfra8p0\\LocalCache\\local-packages\\Python311\\site-packages\\urllib3\\contrib\\socks.py',
   'PYMODULE'),
  ('urllib3.exceptions',
   'C:\\Users\\danna\\AppData\\Local\\Packages\\PythonSoftwareFoundation.Python.3.11_qbz5n2kfra8p0\\LocalCache\\local-packages\\Python311\\site-packages\\urllib3\\exceptions.py',
   'PYMODULE'),
  ('urllib3.fields',
   'C:\\Users\\danna\\AppData\\Local\\Packages\\PythonSoftwareFoundation.Python.3.11_qbz5n2kfra8p0\\LocalCache\\local-packages\\Python311\\site-packages\\urllib3\\fields.py',
   'PYMODULE'),
  ('urllib3.filepost',
   'C:\\Users\\danna\\AppData\\Local\\Packages\\PythonSoftwareFoundation.Python.3.11_qbz5n2kfra8p0\\LocalCache\\local-packages\\Python311\\site-packages\\urllib3\\filepost.py',
   'PYMODULE'),
  ('urllib3.poolmanager',
   'C:\\Users\\danna\\AppData\\Local\\Packages\\PythonSoftwareFoundation.Python.3.11_qbz5n2kfra8p0\\LocalCache\\local-packages\\Python311\\site-packages\\urllib3\\poolmanager.py',
   'PYMODULE'),
  ('urllib3.response',
   'C:\\Users\\danna\\AppData\\Local\\Packages\\PythonSoftwareFoundation.Python.3.11_qbz5n2kfra8p0\\LocalCache\\local-packages\\Python311\\site-packages\\urllib3\\response.py',
   'PYMODULE'),
  ('urllib3.util',
   'C:\\Users\\danna\\AppData\\Local\\Packages\\PythonSoftwareFoundation.Python.3.11_qbz5n2kfra8p0\\LocalCache\\local-packages\\Python311\\site-packages\\urllib3\\util\\__init__.py',
   'PYMODULE'),
  ('urllib3.util.connection',
   'C:\\Users\\danna\\AppData\\Local\\Packages\\PythonSoftwareFoundation.Python.3.11_qbz5n2kfra8p0\\LocalCache\\local-packages\\Python311\\site-packages\\urllib3\\util\\connection.py',
   'PYMODULE'),
  ('urllib3.util.proxy',
   'C:\\Users\\danna\\AppData\\Local\\Packages\\PythonSoftwareFoundation.Python.3.11_qbz5n2kfra8p0\\LocalCache\\local-packages\\Python311\\site-packages\\urllib3\\util\\proxy.py',
   'PYMODULE'),
  ('urllib3.util.request',
   'C:\\Users\\danna\\AppData\\Local\\Packages\\PythonSoftwareFoundation.Python.3.11_qbz5n2kfra8p0\\LocalCache\\local-packages\\Python311\\site-packages\\urllib3\\util\\request.py',
   'PYMODULE'),
  ('urllib3.util.response',
   'C:\\Users\\danna\\AppData\\Local\\Packages\\PythonSoftwareFoundation.Python.3.11_qbz5n2kfra8p0\\LocalCache\\local-packages\\Python311\\site-packages\\urllib3\\util\\response.py',
   'PYMODULE'),
  ('urllib3.util.retry',
   'C:\\Users\\danna\\AppData\\Local\\Packages\\PythonSoftwareFoundation.Python.3.11_qbz5n2kfra8p0\\LocalCache\\local-packages\\Python311\\site-packages\\urllib3\\util\\retry.py',
   'PYMODULE'),
  ('urllib3.util.ssl_',
   'C:\\Users\\danna\\AppData\\Local\\Packages\\PythonSoftwareFoundation.Python.3.11_qbz5n2kfra8p0\\LocalCache\\local-packages\\Python311\\site-packages\\urllib3\\util\\ssl_.py',
   'PYMODULE'),
  ('urllib3.util.ssl_match_hostname',
   'C:\\Users\\danna\\AppData\\Local\\Packages\\PythonSoftwareFoundation.Python.3.11_qbz5n2kfra8p0\\LocalCache\\local-packages\\Python311\\site-packages\\urllib3\\util\\ssl_match_hostname.py',
   'PYMODULE'),
  ('urllib3.util.ssltransport',
   'C:\\Users\\danna\\AppData\\Local\\Packages\\PythonSoftwareFoundation.Python.3.11_qbz5n2kfra8p0\\LocalCache\\local-packages\\Python311\\site-packages\\urllib3\\util\\ssltransport.py',
   'PYMODULE'),
  ('urllib3.util.timeout',
   'C:\\Users\\danna\\AppData\\Local\\Packages\\PythonSoftwareFoundation.Python.3.11_qbz5n2kfra8p0\\LocalCache\\local-packages\\Python311\\site-packages\\urllib3\\util\\timeout.py',
   'PYMODULE'),
  ('urllib3.util.url',
   'C:\\Users\\danna\\AppData\\Local\\Packages\\PythonSoftwareFoundation.Python.3.11_qbz5n2kfra8p0\\LocalCache\\local-packages\\Python311\\site-packages\\urllib3\\util\\url.py',
   'PYMODULE'),
  ('urllib3.util.util',
   'C:\\Users\\danna\\AppData\\Local\\Packages\\PythonSoftwareFoundation.Python.3.11_qbz5n2kfra8p0\\LocalCache\\local-packages\\Python311\\site-packages\\urllib3\\util\\util.py',
   'PYMODULE'),
  ('urllib3.util.wait',
   'C:\\Users\\danna\\AppData\\Local\\Packages\\PythonSoftwareFoundation.Python.3.11_qbz5n2kfra8p0\\LocalCache\\local-packages\\Python311\\site-packages\\urllib3\\util\\wait.py',
   'PYMODULE'),
  ('zipfile',
   'C:\\Program '
   'Files\\WindowsApps\\PythonSoftwareFoundation.Python.3.11_3.11.2544.0_x64__qbz5n2kfra8p0\\Lib\\zipfile.py',
   'PYMODULE')])
